%YAML 1.1
%TAG !u! tag:unity3d.com,2011:
--- !u!65 &6974656869517895018
BoxCollider:
  m_ObjectHideFlags: 0
  m_CorrespondingSourceObject: {fileID: 0}
  m_PrefabInstance: {fileID: 0}
  m_PrefabAsset: {fileID: 0}
  m_GameObject: {fileID: 7371760345516875100}
  m_Material: {fileID: 0}
  m_IsTrigger: 0
  m_Enabled: 1
  serializedVersion: 2
  m_Size: {x: 1, y: 1, z: 1}
  m_Center: {x: 0, y: 0, z: 0}
--- !u!1001 &7197111115113007873
PrefabInstance:
  m_ObjectHideFlags: 0
  serializedVersion: 2
  m_Modification:
    m_TransformParent: {fileID: 0}
    m_Modifications:
    - target: {fileID: 408849649723636275, guid: 1538bf4659f0477479b6d27b36e452d0,
        type: 3}
      propertyPath: m_Mesh
      value: 
      objectReference: {fileID: 10202, guid: 0000000000000000e000000000000000, type: 0}
    - target: {fileID: 408849651338024540, guid: 1538bf4659f0477479b6d27b36e452d0,
        type: 3}
      propertyPath: m_RootOrder
      value: 0
      objectReference: {fileID: 0}
    - target: {fileID: 408849651338024540, guid: 1538bf4659f0477479b6d27b36e452d0,
        type: 3}
      propertyPath: m_LocalScale.x
      value: 1.59
      objectReference: {fileID: 0}
    - target: {fileID: 408849651338024540, guid: 1538bf4659f0477479b6d27b36e452d0,
        type: 3}
      propertyPath: m_LocalScale.y
      value: 1
      objectReference: {fileID: 0}
    - target: {fileID: 408849651338024540, guid: 1538bf4659f0477479b6d27b36e452d0,
        type: 3}
      propertyPath: m_LocalScale.z
      value: 1
      objectReference: {fileID: 0}
    - target: {fileID: 408849651338024540, guid: 1538bf4659f0477479b6d27b36e452d0,
        type: 3}
      propertyPath: m_LocalPosition.x
      value: 0
      objectReference: {fileID: 0}
    - target: {fileID: 408849651338024540, guid: 1538bf4659f0477479b6d27b36e452d0,
        type: 3}
      propertyPath: m_LocalPosition.y
      value: 0
      objectReference: {fileID: 0}
    - target: {fileID: 408849651338024540, guid: 1538bf4659f0477479b6d27b36e452d0,
        type: 3}
      propertyPath: m_LocalPosition.z
      value: 0
      objectReference: {fileID: 0}
    - target: {fileID: 408849651338024540, guid: 1538bf4659f0477479b6d27b36e452d0,
        type: 3}
      propertyPath: m_LocalRotation.w
      value: 1
      objectReference: {fileID: 0}
    - target: {fileID: 408849651338024540, guid: 1538bf4659f0477479b6d27b36e452d0,
        type: 3}
      propertyPath: m_LocalRotation.x
      value: 0
      objectReference: {fileID: 0}
    - target: {fileID: 408849651338024540, guid: 1538bf4659f0477479b6d27b36e452d0,
        type: 3}
      propertyPath: m_LocalRotation.y
      value: 0
      objectReference: {fileID: 0}
    - target: {fileID: 408849651338024540, guid: 1538bf4659f0477479b6d27b36e452d0,
        type: 3}
      propertyPath: m_LocalRotation.z
      value: 0
      objectReference: {fileID: 0}
    - target: {fileID: 408849651338024540, guid: 1538bf4659f0477479b6d27b36e452d0,
        type: 3}
      propertyPath: m_LocalEulerAnglesHint.x
      value: 45
      objectReference: {fileID: 0}
    - target: {fileID: 408849651338024540, guid: 1538bf4659f0477479b6d27b36e452d0,
        type: 3}
      propertyPath: m_LocalEulerAnglesHint.y
      value: 0
      objectReference: {fileID: 0}
    - target: {fileID: 408849651338024540, guid: 1538bf4659f0477479b6d27b36e452d0,
        type: 3}
      propertyPath: m_LocalEulerAnglesHint.z
      value: 0
      objectReference: {fileID: 0}
    - target: {fileID: 408849651338024541, guid: 1538bf4659f0477479b6d27b36e452d0,
        type: 3}
      propertyPath: m_Name
      value: Cube Obstacle
      objectReference: {fileID: 0}
    m_RemovedComponents: []
  m_SourcePrefab: {fileID: 100100000, guid: 1538bf4659f0477479b6d27b36e452d0, type: 3}
--- !u!1 &7371760345516875100 stripped
GameObject:
  m_CorrespondingSourceObject: {fileID: 408849651338024541, guid: 1538bf4659f0477479b6d27b36e452d0,
    type: 3}
  m_PrefabInstance: {fileID: 7197111115113007873}
  m_PrefabAsset: {fileID: 0}
